{
  "jsonapi": {
    "version": "1.0",
    "meta": {
      "links": {
        "self": {
          "href": "http://jsonapi.org/format/1.0/"
        }
      }
    }
  },
  "data": [
    {
      "type": "taxonomy_term--recipe_category",
      "id": "3b2120bf-cacd-4313-808a-b31130a54434",
      "links": {
        "self": {
          "href": "https://dev-ds-demo.pantheonsite.io/en/jsonapi/taxonomy_term/recipe_category/3b2120bf-cacd-4313-808a-b31130a54434"
        }
      },
      "attributes": {
        "name": "Accompaniments"
      }
    },
    {
      "type": "taxonomy_term--recipe_category",
      "id": "a587f1e4-b592-484d-8f58-137cad0e7cb0",
      "links": {
        "self": {
          "href": "https://dev-ds-demo.pantheonsite.io/en/jsonapi/taxonomy_term/recipe_category/a587f1e4-b592-484d-8f58-137cad0e7cb0"
        }
      },
      "attributes": {
        "name": "Desserts"
      }
    },
    {
      "type": "taxonomy_term--recipe_category",
      "id": "92972052-3377-47fc-a038-b61e56f3a8cb",
      "links": {
        "self": {
          "href": "https://dev-ds-demo.pantheonsite.io/en/jsonapi/taxonomy_term/recipe_category/92972052-3377-47fc-a038-b61e56f3a8cb"
        }
      },
      "attributes": {
        "name": "Main courses"
      }
    },
    {
      "type": "taxonomy_term--recipe_category",
      "id": "a23e37d3-98ab-4d2e-808a-dea71749f494",
      "links": {
        "self": {
          "href": "https://dev-ds-demo.pantheonsite.io/en/jsonapi/taxonomy_term/recipe_category/a23e37d3-98ab-4d2e-808a-dea71749f494"
        }
      },
      "attributes": {
        "name": "Snacks"
      }
    },
    {
      "type": "taxonomy_term--recipe_category",
      "id": "35211c28-3ff0-4b8c-95c8-b9bc8ddca733",
      "links": {
        "self": {
          "href": "https://dev-ds-demo.pantheonsite.io/en/jsonapi/taxonomy_term/recipe_category/35211c28-3ff0-4b8c-95c8-b9bc8ddca733"
        }
      },
      "attributes": {
        "name": "Starters"
      }
    }
  ],
  "links": {
    "self": {
      "href": "https://dev-ds-demo.pantheonsite.io/en/jsonapi/taxonomy_term/recipe_category?fields%5Bnode--page%5D=title%2Cid&fields%5Bnode--ds_example%5D=title%2Cid&fields%5Btaxonomy_term--recipe_category%5D=name%2Cid"
    }
  }
}
