{
  "jsonapi": {
    "version": "1.0",
    "meta": {
      "links": {
        "self": {
          "href": "http://jsonapi.org/format/1.0/"
        }
      }
    }
  },
  "data": {
    "type": "node--recipe",
    "id": "50c3e7c9-64a9-453c-9289-278132beb4a2",
    "links": {
      "self": {
        "href": "https://dev-ds-demo.pantheonsite.io/en/jsonapi/node/recipe/50c3e7c9-64a9-453c-9289-278132beb4a2?resourceVersion=id%3A4"
      }
    },
    "attributes": {
      "drupal_internal__nid": 2,
      "drupal_internal__vid": 4,
      "langcode": "en",
      "revision_timestamp": "2022-02-16T22:40:41+00:00",
      "revision_log": null,
      "status": true,
      "title": "Vegan chocolate and nut brownies",
      "created": "2022-02-16T22:40:41+00:00",
      "changed": "2022-02-16T22:40:41+00:00",
      "promote": true,
      "sticky": false,
      "default_langcode": true,
      "revision_translation_affected": null,
      "moderation_state": "published",
      "path": {
        "alias": "/recipes/vegan-chocolate-and-nut-brownies",
        "pid": 69,
        "langcode": "en"
      },
      "content_translation_source": "und",
      "content_translation_outdated": false,
      "field_cooking_time": 20,
      "field_difficulty": "medium",
      "field_ingredients": [
        "6 tbsp sunflower oil",
        " 80g vegan dark chocolate",
        " 170g plain flour",
        " 80g coconut flour",
        " 1 tsp baking powder",
        " 9 tsp cocoa powder",
        " 100g caster sugar",
        " 3 tbsp of maple syrup",
        " 1/4 tsp sea salt",
        " 1 tsp vanilla extract",
        " 230ml unsweetened organic soya milk",
        " 100g pecan nuts",
        " 80g walnut halves"
      ],
      "field_number_of_servings": 12,
      "field_preparation_time": 20,
      "field_recipe_instruction": {
        "value": "<ol>\n  <li>Use a little of the sunflower oil to grease an 8 inch square baking tin (or similar size) and line the tin with greaseproof paper.</li>\n  <li>Preheat the oven to 350°F/180°C.</li>\n  <li>Break approximately 1/3rd of the chocolate bar off and chop into small pieces. Roughly chop 2/3rds of the pecan nuts and mix together with the chopped chocolate. Set aside.</li>\n  <li>For finishing the brownies, chop or crush the remaining pecan nuts and walnuts, mix together and set aside.</li>\n  <li>Melt the remaining chocolate by bringing a couple inches of water to the boil in a small saucepan that is suitably sized for holding a heatproof bowl in the pan opening. Do not allow the bottom of the heatproof bowl to touch the water. Place the chocolate into the bowl to melt, stirring occasionally to ensure the chocolate has fully melted. Once melted, set aside and allow to cool slightly.</li>\n  <li>Whilst the chocolate is melting, begin to sieve the plain flour, coconut flour, and cocoa powder into a large mixing bowl and mix. Once mixed, stir in the baking powder and sugar.</li>\n  <li>Once the chocolate has cooled a little, begin to slowly stir the vanilla essence, sunflower oil, soya milk, and melted chocolate into the flour and cocoa mix.</li>\n  <li>Now stir in the previously chopped chocolate and pecan nuts, ensuring they are stirred evenly into the mixture.</li>\n  <li>Pour the mixture into the baking tin and spread evenly with a spatula.</li>\n  <li>Sprinkle the chopped pecan nuts and walnuts across the top and bake in the centre of the oven for 18 to 23 minutes.</li>\n  <li>Remove from the oven and allow to cool for 45 minutes. Carefully use the edges of the greaseproof paper to lift the brownie out of the tin and place onto a chopping board. With a sharp knife, gently cut into evenly sized pieces.</li>\n  <li>Serve on their own or with some vegan cream or ice cream.</li>\n</ol>\n",
        "format": "basic_html",
        "processed": "<ol>\n<li>Use a little of the sunflower oil to grease an 8 inch square baking tin (or similar size) and line the tin with greaseproof paper.</li>\n<li>Preheat the oven to 350°F/180°C.</li>\n<li>Break approximately 1/3rd of the chocolate bar off and chop into small pieces. Roughly chop 2/3rds of the pecan nuts and mix together with the chopped chocolate. Set aside.</li>\n<li>For finishing the brownies, chop or crush the remaining pecan nuts and walnuts, mix together and set aside.</li>\n<li>Melt the remaining chocolate by bringing a couple inches of water to the boil in a small saucepan that is suitably sized for holding a heatproof bowl in the pan opening. Do not allow the bottom of the heatproof bowl to touch the water. Place the chocolate into the bowl to melt, stirring occasionally to ensure the chocolate has fully melted. Once melted, set aside and allow to cool slightly.</li>\n<li>Whilst the chocolate is melting, begin to sieve the plain flour, coconut flour, and cocoa powder into a large mixing bowl and mix. Once mixed, stir in the baking powder and sugar.</li>\n<li>Once the chocolate has cooled a little, begin to slowly stir the vanilla essence, sunflower oil, soya milk, and melted chocolate into the flour and cocoa mix.</li>\n<li>Now stir in the previously chopped chocolate and pecan nuts, ensuring they are stirred evenly into the mixture.</li>\n<li>Pour the mixture into the baking tin and spread evenly with a spatula.</li>\n<li>Sprinkle the chopped pecan nuts and walnuts across the top and bake in the centre of the oven for 18 to 23 minutes.</li>\n<li>Remove from the oven and allow to cool for 45 minutes. Carefully use the edges of the greaseproof paper to lift the brownie out of the tin and place onto a chopping board. With a sharp knife, gently cut into evenly sized pieces.</li>\n<li>Serve on their own or with some vegan cream or ice cream.</li>\n</ol>\n"
      },
      "field_summary": {
        "value": "Scrumptious vegan chocolate brownies that are rich, fudgy, and nutty. These delights have a surprise hint of coconut making them the perfect indulgence. Serve warm with a little vanilla dairy-free ice cream!",
        "format": "basic_html",
        "processed": "<p>Scrumptious vegan chocolate brownies that are rich, fudgy, and nutty. These delights have a surprise hint of coconut making them the perfect indulgence. Serve warm with a little vanilla dairy-free ice cream!</p>\n"
      }
    },
    "relationships": {
      "node_type": {
        "data": {
          "type": "node_type--node_type",
          "id": "1c42f343-4d30-4fa3-a5c6-919daa61b952",
          "meta": {
            "drupal_internal__target_id": "recipe"
          }
        },
        "links": {
          "related": {
            "href": "https://dev-ds-demo.pantheonsite.io/en/jsonapi/node/recipe/50c3e7c9-64a9-453c-9289-278132beb4a2/node_type?resourceVersion=id%3A4"
          },
          "self": {
            "href": "https://dev-ds-demo.pantheonsite.io/en/jsonapi/node/recipe/50c3e7c9-64a9-453c-9289-278132beb4a2/relationships/node_type?resourceVersion=id%3A4"
          }
        }
      },
      "revision_uid": {
        "data": {
          "type": "user--user",
          "id": "a7d16dca-adbb-4e56-a32d-ebc72cf95226",
          "meta": {
            "drupal_internal__target_id": 5
          }
        },
        "links": {
          "related": {
            "href": "https://dev-ds-demo.pantheonsite.io/en/jsonapi/node/recipe/50c3e7c9-64a9-453c-9289-278132beb4a2/revision_uid?resourceVersion=id%3A4"
          },
          "self": {
            "href": "https://dev-ds-demo.pantheonsite.io/en/jsonapi/node/recipe/50c3e7c9-64a9-453c-9289-278132beb4a2/relationships/revision_uid?resourceVersion=id%3A4"
          }
        }
      },
      "uid": {
        "data": {
          "type": "user--user",
          "id": "a7d16dca-adbb-4e56-a32d-ebc72cf95226",
          "meta": {
            "drupal_internal__target_id": 5
          }
        },
        "links": {
          "related": {
            "href": "https://dev-ds-demo.pantheonsite.io/en/jsonapi/node/recipe/50c3e7c9-64a9-453c-9289-278132beb4a2/uid?resourceVersion=id%3A4"
          },
          "self": {
            "href": "https://dev-ds-demo.pantheonsite.io/en/jsonapi/node/recipe/50c3e7c9-64a9-453c-9289-278132beb4a2/relationships/uid?resourceVersion=id%3A4"
          }
        }
      },
      "field_media_image": {
        "data": {
          "type": "media--image",
          "id": "d04d6951-b696-43ce-a591-9055d5243cca",
          "meta": {
            "drupal_internal__target_id": 2
          }
        },
        "links": {
          "related": {
            "href": "https://dev-ds-demo.pantheonsite.io/en/jsonapi/node/recipe/50c3e7c9-64a9-453c-9289-278132beb4a2/field_media_image?resourceVersion=id%3A4"
          },
          "self": {
            "href": "https://dev-ds-demo.pantheonsite.io/en/jsonapi/node/recipe/50c3e7c9-64a9-453c-9289-278132beb4a2/relationships/field_media_image?resourceVersion=id%3A4"
          }
        }
      },
      "field_recipe_category": {
        "data": [
          {
            "type": "taxonomy_term--recipe_category",
            "id": "a23e37d3-98ab-4d2e-808a-dea71749f494",
            "meta": {
              "drupal_internal__target_id": 32
            }
          }
        ],
        "links": {
          "related": {
            "href": "https://dev-ds-demo.pantheonsite.io/en/jsonapi/node/recipe/50c3e7c9-64a9-453c-9289-278132beb4a2/field_recipe_category?resourceVersion=id%3A4"
          },
          "self": {
            "href": "https://dev-ds-demo.pantheonsite.io/en/jsonapi/node/recipe/50c3e7c9-64a9-453c-9289-278132beb4a2/relationships/field_recipe_category?resourceVersion=id%3A4"
          }
        }
      },
      "field_tags": {
        "data": [
          {
            "type": "taxonomy_term--tags",
            "id": "26c4eccb-fb57-4145-98d9-813e87e05151",
            "meta": {
              "drupal_internal__target_id": 3
            }
          },
          {
            "type": "taxonomy_term--tags",
            "id": "eef7a845-357a-45e0-bfc6-f2efcf1d8a43",
            "meta": {
              "drupal_internal__target_id": 7
            }
          },
          {
            "type": "taxonomy_term--tags",
            "id": "b8cd8121-3d5e-4ac7-b145-a95fadb084fb",
            "meta": {
              "drupal_internal__target_id": 27
            }
          },
          {
            "type": "taxonomy_term--tags",
            "id": "09ac956d-abd5-41ed-8e97-b38dbad6bd9f",
            "meta": {
              "drupal_internal__target_id": 9
            }
          }
        ],
        "links": {
          "related": {
            "href": "https://dev-ds-demo.pantheonsite.io/en/jsonapi/node/recipe/50c3e7c9-64a9-453c-9289-278132beb4a2/field_tags?resourceVersion=id%3A4"
          },
          "self": {
            "href": "https://dev-ds-demo.pantheonsite.io/en/jsonapi/node/recipe/50c3e7c9-64a9-453c-9289-278132beb4a2/relationships/field_tags?resourceVersion=id%3A4"
          }
        }
      }
    }
  },
  "links": {
    "self": {
      "href": "https://dev-ds-demo.pantheonsite.io/en/jsonapi/node/recipe/50c3e7c9-64a9-453c-9289-278132beb4a2?resourceVersion=id%3A4"
    }
  }
}
