{
  "/recipes/victoria-sponge-cake": {
    "resolved": "https://dev-ds-demo.pantheonsite.io/en/recipes/victoria-sponge-cake",
    "isHomePath": false,
    "entity": {
      "canonical": "https://dev-ds-demo.pantheonsite.io/en/recipes/victoria-sponge-cake",
      "type": "node",
      "bundle": "recipe",
      "id": "5",
      "uuid": "510cec29-bc95-4a64-a519-0ca6084529db",
      "langcode": "en"
    },
    "label": "Victoria sponge cake",
    "jsonapi": {
      "individual": "https://dev-ds-demo.pantheonsite.io/en/jsonapi/node/recipe/510cec29-bc95-4a64-a519-0ca6084529db",
      "resourceName": "node--recipe",
      "pathPrefix": "jsonapi",
      "basePath": "/jsonapi",
      "entryPoint": "https://dev-ds-demo.pantheonsite.io/en/jsonapi"
    },
    "meta": {
      "deprecated": {
        "jsonapi.pathPrefix": "This property has been deprecated and will be removed in the next version of Decoupled Router. Use basePath instead."
      }
    }
  }
}
